<svg width="24" height="24" viewBox="0 0 24 24" fill="none" xmlns="http://www.w3.org/2000/svg">
<path d="M20.1954 12.9487V21.9399C20.1954 22.3302 19.878 22.6477 19.4877 22.6477H18.9425C18.7482 22.6477 18.5908 22.805 18.5908 22.9993C18.5908 23.1935 18.7482 23.3509 18.9425 23.3509H19.4877C20.2657 23.3509 20.8986 22.7179 20.8986 21.9399V13.6808L21.6143 14.4258C21.9375 14.7622 22.474 14.7679 22.8043 14.4377L23.7577 13.4841C24.0762 13.1658 24.0814 12.6426 23.7695 12.3179L12.9481 1.05312C12.4307 0.514591 11.5697 0.514122 11.052 1.05312L0.230538 12.3179C-0.0813675 12.6426 -0.0761168 13.1658 0.242258 13.4841L1.19579 14.4377C1.52574 14.7675 2.06212 14.7626 2.38574 14.4258L3.10135 13.6808V15.3888C3.10135 15.5831 3.25878 15.7405 3.45296 15.7405C3.64715 15.7405 3.80458 15.5831 3.80458 15.3888V12.9488L11.7327 4.6958C11.8785 4.54404 12.121 4.54362 12.2673 4.6958C18.5859 11.2732 17.335 9.97109 20.1954 12.9487ZM23.2605 12.9868L22.3069 13.9404C22.2446 13.9917 22.1827 13.9911 22.1214 13.9385L12.7745 4.20869C12.7744 4.20865 12.7744 4.20865 12.7744 4.2086C12.7739 4.20808 12.7734 4.20766 12.7729 4.20715C12.3499 3.76843 11.6482 3.76861 11.2256 4.20865L3.19938 12.5636C3.19919 12.5638 3.19905 12.564 3.19886 12.5642L1.87862 13.9385C1.8173 13.9911 1.75542 13.9917 1.69306 13.9403L0.739534 12.9868C0.689886 12.9372 0.689089 12.8556 0.737706 12.805L11.5591 1.54027C11.8 1.2895 12.2001 1.28955 12.441 1.54032L23.2623 12.805C23.311 12.8556 23.3102 12.9372 23.2605 12.9868Z" fill="white"/>
<path d="M17.2948 22.6477H15.2089V18.6665C15.2089 16.8973 13.7695 15.4579 12.0002 15.4579C10.231 15.4579 8.79157 16.8973 8.79157 18.6665V22.6477H4.51252C4.12227 22.6477 3.80479 22.3302 3.80479 21.9399V17.0297C3.80479 16.8355 3.64736 16.6781 3.45318 16.6781C3.25899 16.6781 3.10156 16.8355 3.10156 17.0297V21.9399C3.10156 22.7179 3.73451 23.3509 4.51252 23.3509H17.2948C17.489 23.3509 17.6464 23.1935 17.6464 22.9993C17.6464 22.805 17.489 22.6477 17.2948 22.6477ZM9.4948 18.6665C9.4948 17.2851 10.6187 16.1612 12.0002 16.1612C13.3817 16.1612 14.5056 17.2851 14.5056 18.6665V22.6477H9.4948V18.6665Z" fill="white"/>
</svg>
