<svg width="24" height="24" viewBox="0 0 24 24" fill="none" xmlns="http://www.w3.org/2000/svg">
<path d="M18.4653 11.1355C18.4653 6.75264 13.8452 3.87976 9.23264 3.87976C4.60167 3.87976 0 6.76614 0 11.1355C0 12.7886 0.723984 14.4051 2.03864 15.6873C2.08894 15.7364 2.1082 15.8109 2.08889 15.8816C1.67597 17.3943 0.697969 18.7608 0.296672 19.2782C0.171844 19.4391 0.151312 19.6519 0.243141 19.8336C0.332906 20.0113 0.510375 20.1202 0.708656 20.1202C0.713156 20.1202 0.717609 20.1201 0.722109 20.12C2.68584 20.071 4.96205 19.5168 6.36905 18.1335C6.41822 18.0851 6.48877 18.066 6.55786 18.0825C7.42233 18.2875 8.32228 18.3914 9.23264 18.3914C13.8622 18.3913 18.4653 15.5061 18.4653 11.1355ZM6.72009 17.3982C6.41442 17.3256 6.09881 17.4131 5.87611 17.632C4.46906 19.0155 2.17148 19.33 1.08384 19.3998C1.58067 18.714 2.38847 17.4544 2.76722 16.0667C2.8538 15.7496 2.76272 15.4113 2.52956 15.1839C1.33472 14.0185 0.703125 12.6186 0.703125 11.1355C0.703125 7.52242 4.52944 4.58289 9.23264 4.58289C13.9358 4.58289 17.7622 7.52237 17.7622 11.1355C17.7622 14.7487 13.9358 17.6882 9.23264 17.6882C8.37684 17.6882 7.53155 17.5906 6.72009 17.3982Z" fill="white"/>
<path d="M20.7264 16.9772C22.7762 15.9413 24 14.1757 24 12.2543C24 9.53882 21.5453 7.21851 18.1632 6.73706C17.9712 6.70978 17.793 6.84332 17.7656 7.03556C17.7383 7.22779 17.8719 7.40578 18.0641 7.43315C21.0962 7.86478 23.2968 9.89235 23.2968 12.2543C23.2968 13.9049 22.2174 15.4359 20.4093 16.3497C20.0577 16.5274 19.8693 16.9202 19.9512 17.305C20.1227 18.1106 20.4876 18.8565 20.7795 19.3621C18.7033 19.0165 17.9164 18.0203 17.6676 17.5892C17.514 17.323 17.2268 17.158 16.9168 17.158C16.9158 17.158 16.915 17.158 16.9141 17.158L16.8883 17.1581C16.4984 17.1581 16.108 17.131 15.7281 17.0776C15.5364 17.0507 15.3581 17.1846 15.3311 17.3769C15.3041 17.5692 15.4381 17.7469 15.6303 17.7739C16.0426 17.8318 16.4658 17.8611 16.8883 17.8611L16.9169 17.8611H16.9174C16.9762 17.8611 17.0302 17.8915 17.0586 17.9406C18.0107 19.5907 20.1996 20.0121 21.0964 20.1166C21.2945 20.1397 21.4832 20.0491 21.5889 19.8799C21.6944 19.711 21.6931 19.5019 21.5854 19.3342C21.3153 18.9135 20.8332 18.0714 20.639 17.1587C20.6235 17.0857 20.6594 17.0111 20.7264 16.9772Z" fill="white"/>
<path d="M3.76237 9.87805C3.09051 9.87805 2.54395 10.4247 2.54395 11.0965C2.54395 11.7683 3.09051 12.3149 3.76237 12.3149C4.43423 12.3149 4.98079 11.7683 4.98079 11.0965C4.98079 10.4247 4.43423 9.87805 3.76237 9.87805ZM3.76237 11.6118C3.47821 11.6118 3.24707 11.3806 3.24707 11.0965C3.24707 10.8124 3.47826 10.5812 3.76237 10.5812C4.04648 10.5812 4.27766 10.8124 4.27766 11.0965C4.27766 11.3806 4.04648 11.6118 3.76237 11.6118Z" fill="white"/>
<path d="M7.23795 9.87805C6.56609 9.87805 6.01953 10.4247 6.01953 11.0965C6.01953 11.7683 6.56609 12.3149 7.23795 12.3149C7.90981 12.3149 8.45638 11.7683 8.45638 11.0965C8.45638 10.4247 7.90981 9.87805 7.23795 9.87805ZM7.23795 11.6118C6.9538 11.6118 6.72266 11.3806 6.72266 11.0965C6.72266 10.8124 6.95384 10.5812 7.23795 10.5812C7.52206 10.5812 7.75325 10.8124 7.75325 11.0965C7.75325 11.3806 7.52211 11.6118 7.23795 11.6118Z" fill="white"/>
<path d="M10.714 9.87805C10.0422 9.87805 9.49561 10.4247 9.49561 11.0965C9.49561 11.7683 10.0422 12.3149 10.714 12.3149C11.3859 12.3149 11.9324 11.7683 11.9324 11.0965C11.9324 10.4247 11.3859 9.87805 10.714 9.87805ZM10.714 11.6118C10.4299 11.6118 10.1987 11.3806 10.1987 11.0965C10.1987 10.8124 10.4299 10.5812 10.714 10.5812C10.9981 10.5812 11.2293 10.8124 11.2293 11.0965C11.2293 11.3806 10.9982 11.6118 10.714 11.6118Z" fill="white"/>
<path d="M14.1896 9.87805C13.5178 9.87805 12.9712 10.4247 12.9712 11.0965C12.9712 11.7683 13.5178 12.3149 14.1896 12.3149C14.8615 12.3149 15.408 11.7683 15.408 11.0965C15.408 10.4247 14.8615 9.87805 14.1896 9.87805ZM14.1896 11.6118C13.9055 11.6118 13.6743 11.3806 13.6743 11.0965C13.6743 10.8124 13.9055 10.5812 14.1896 10.5812C14.4737 10.5812 14.7049 10.8124 14.7049 11.0965C14.7049 11.3806 14.4737 11.6118 14.1896 11.6118Z" fill="white"/>
</svg>
