<svg width="20" height="20" viewBox="0 0 20 20" fill="none" xmlns="http://www.w3.org/2000/svg">
<path d="M7.49989 13.4749L4.02489 9.99987L2.84155 11.1749L7.49989 15.8332L17.4999 5.8332L16.3249 4.6582L7.49989 13.4749Z" fill="white"/>
</svg>
