<svg width="162" height="82" viewBox="0 0 162 82" fill="none" xmlns="http://www.w3.org/2000/svg">
<g clip-path="url(#clip0)">
<path opacity="0.5" d="M162 81C162 59.5175 153.466 38.9148 138.276 23.7244C123.085 8.53391 102.483 1.62189e-06 81 0C59.5175 -1.62189e-06 38.9148 8.5339 23.7244 23.7243C8.53391 38.9148 3.24377e-06 59.5175 0 81H8.53376C8.53376 61.7807 16.1686 43.3487 29.7586 29.7586C43.3487 16.1686 61.7808 8.53376 81 8.53376C100.219 8.53376 118.651 16.1686 132.241 29.7586C145.831 43.3487 153.466 61.7808 153.466 81H162Z" fill="#212E5C"/>
<path opacity="0.5" d="M82.5 18V33" stroke="#212E5C" stroke-width="5"/>
<path opacity="0.5" d="M143.5 77.5H128.5" stroke="#212E5C" stroke-width="5"/>
<path opacity="0.5" d="M33 77.5H18" stroke="#212E5C" stroke-width="5"/>
<path opacity="0.5" d="M47.839 49.3743L37.2324 38.7677" stroke="#212E5C" stroke-width="5"/>
<path opacity="0.5" d="M117.768 49.7678L128.374 39.1612" stroke="#212E5C" stroke-width="5"/>
<path opacity="0.5" d="M82.5 12V82" stroke="#212E5C"/>
</g>
<defs>
<clipPath id="clip0">
<rect width="162" height="82" fill="white"/>
</clipPath>
</defs>
</svg>
